<?xml version="1.0" encoding="iso-8859-1"?>
<!-- Generator: Adobe Illustrator 19.0.0, SVG Export Plug-In . SVG Version: 6.00 Build 0)  -->
<svg version="1.1" id="Capa_1" xmlns="http://www.w3.org/2000/svg" xmlns:xlink="http://www.w3.org/1999/xlink" x="0px" y="0px"
	 viewBox="0 0 512 512" style="enable-background:new 0 0 512 512;" xml:space="preserve">
<g>
	<g>
		<g>
			<path d="M504.646,305.677l-85.333-27.823c-2.167-0.688-4.458-0.688-6.625,0l-85.333,27.823
				c-4.375,1.438-7.354,5.531-7.354,10.146v55.656c0,75.073,12,102.5,91.5,139.521c1.417,0.667,2.958,1,4.5,1
				c1.542,0,3.083-0.333,4.5-1C500,473.979,512,446.552,512,371.479v-55.656C512,311.208,509.021,307.115,504.646,305.677z
				 M420.875,463.406c-1.542,0.792-3.208,1.177-4.875,1.177c-1.938,0-3.854-0.521-5.563-1.563c-3.167-1.938-5.104-5.385-5.104-9.104
				v-48.583h-32c-5.896,0-10.667-4.771-10.667-10.667v-47.875c0-4.615,2.979-8.708,7.354-10.146l42.667-13.917
				c3.271-1.021,6.813-0.49,9.583,1.51c2.75,2.01,4.396,5.219,4.396,8.635V384h32c2.917,0,5.708,1.198,7.729,3.313
				c2,2.115,3.063,4.958,2.917,7.875C467.625,430.104,457.208,444.771,420.875,463.406z"/>
			<path d="M298.542,104.938c0.083,0.969,0.125,1.938,0.125,2.917v9.479c0,5.896,4.771,10.667,10.667,10.667H416
				c3.771,0,7.25-1.979,9.167-5.208c1.917-3.24,2-7.24,0.208-10.542L367.479,5.583C365.604,2.146,362.021,0,358.104,0h-57.333
				c-3,0-5.854,1.26-7.875,3.469c-2.021,2.208-3.021,5.167-2.75,8.156L298.542,104.938z"/>
			<path d="M10.667,128h106.667c5.896,0,10.667-4.771,10.667-10.667v-9.479c0-0.99,0.042-1.969,0.125-2.865l8.396-93.365
				c0.271-2.99-0.729-5.948-2.75-8.156C131.75,1.26,128.896,0,125.896,0H68.563c-3.917,0-7.5,2.146-9.375,5.583L1.292,112.25
				c-1.792,3.302-1.708,7.302,0.208,10.542C3.417,126.021,6.896,128,10.667,128z"/>
			<path d="M320.75,285.406l85.333-27.833c3.188-1.042,6.521-1.573,9.917-1.573c5.896,0,10.667-4.771,10.667-10.667V160
				c0-5.896-4.771-10.667-10.667-10.667H309.333c-5.896,0-10.667,4.771-10.667,10.667v42.667c0,17.646-14.354,32-32,32H160
				c-17.646,0-32-14.354-32-32V160c0-5.896-4.771-10.667-10.667-10.667H10.667C4.771,149.333,0,154.104,0,160v256
				c0,5.896,4.771,10.667,10.667,10.667h279.896c3.083,0,6-1.323,8.021-3.635c2.021-2.313,2.958-5.396,2.563-8.438
				c-1.667-12.469-2.479-26.573-2.479-43.115v-55.656C298.667,301.927,307.542,289.698,320.75,285.406z"/>
		</g>
	</g>
</g>
<g>
</g>
<g>
</g>
<g>
</g>
<g>
</g>
<g>
</g>
<g>
</g>
<g>
</g>
<g>
</g>
<g>
</g>
<g>
</g>
<g>
</g>
<g>
</g>
<g>
</g>
<g>
</g>
<g>
</g>
</svg>
